<svg width="18" height="18" viewBox="0 0 18 18" xmlns="http://www.w3.org/2000/svg">
    <g transform="translate(1 1)" stroke="#6D6D6D" stroke-width="1.5" fill="none" fill-rule="evenodd" stroke-linecap="round" stroke-linejoin="round">
        <circle cx="8" cy="8" r="8"/>
        <path d="M8 4.8v6.4M4.8 8h6.4"/>
    </g>
</svg>
